<svg xmlns="http://www.w3.org/2000/svg" xmlns:xlink="http://www.w3.org/1999/xlink" width="585.803" height="434.474" viewBox="0 0 585.803 434.474">
  <defs>
    <linearGradient id="linear-gradient" x1="0.542" y1="0.818" x2="0.376" y2="-0.389" gradientUnits="objectBoundingBox">
      <stop offset="0" stop-color="#fff" stop-opacity="0"/>
      <stop offset="0.95" stop-color="#fff"/>
    </linearGradient>
    <linearGradient id="linear-gradient-2" x1="0.526" y1="0.869" x2="0.451" y2="-0.197" gradientUnits="objectBoundingBox">
      <stop offset="0" stop-color="#010101" stop-opacity="0"/>
      <stop offset="0.95" stop-color="#010101"/>
    </linearGradient>
    <linearGradient id="linear-gradient-3" x1="-0.001" y1="0.5" x2="1.001" y2="0.5" xlink:href="#linear-gradient-2"/>
    <linearGradient id="linear-gradient-4" x1="0.522" y1="-0.015" x2="0.445" y2="1.815" xlink:href="#linear-gradient-2"/>
    <linearGradient id="linear-gradient-5" x1="0.495" y1="-0.7" x2="0.505" y2="1.727" xlink:href="#linear-gradient-2"/>
    <linearGradient id="linear-gradient-6" x1="0.46" y1="0.922" x2="0.557" y2="-1.272" xlink:href="#linear-gradient"/>
    <linearGradient id="linear-gradient-7" x1="0.493" y1="0.888" x2="0.537" y2="-4.631" xlink:href="#linear-gradient-2"/>
    <linearGradient id="linear-gradient-8" x1="0.523" y1="-0.183" x2="0.467" y2="1.485" xlink:href="#linear-gradient"/>
    <linearGradient id="linear-gradient-9" x1="-1.767" y1="0.137" x2="-1.799" y2="3.545" xlink:href="#linear-gradient"/>
    <linearGradient id="linear-gradient-10" x1="13.176" y1="-55.67" x2="13.143" y2="-51.467" xlink:href="#linear-gradient"/>
    <linearGradient id="linear-gradient-11" x1="-7.976" y1="6.885" x2="-8.003" y2="9.115" xlink:href="#linear-gradient"/>
    <linearGradient id="linear-gradient-12" x1="4.598" y1="-46.672" x2="4.562" y2="-43.412" xlink:href="#linear-gradient"/>
    <linearGradient id="linear-gradient-13" x1="8.051" y1="-2.916" x2="8.023" y2="-0.53" xlink:href="#linear-gradient"/>
    <linearGradient id="linear-gradient-14" x1="32.442" y1="-30.418" x2="32.408" y2="-26.956" xlink:href="#linear-gradient"/>
    <linearGradient id="linear-gradient-15" x1="8.398" y1="-3.316" x2="8.37" y2="-0.93" xlink:href="#linear-gradient"/>
    <linearGradient id="linear-gradient-16" x1="34.631" y1="-31.151" x2="34.597" y2="-27.691" xlink:href="#linear-gradient"/>
    <linearGradient id="linear-gradient-17" x1="-11.759" y1="12.327" x2="-11.787" y2="14.788" xlink:href="#linear-gradient"/>
    <linearGradient id="linear-gradient-18" x1="12.07" y1="-36.807" x2="12.036" y2="-33.361" xlink:href="#linear-gradient"/>
    <linearGradient id="linear-gradient-19" x1="7.226" y1="-1.909" x2="7.198" y2="0.4" xlink:href="#linear-gradient"/>
    <linearGradient id="linear-gradient-20" x1="26.211" y1="-31.32" x2="26.176" y2="-27.926" xlink:href="#linear-gradient"/>
    <linearGradient id="linear-gradient-21" x1="-3.034" y1="0.635" x2="-3.064" y2="3.732" xlink:href="#linear-gradient"/>
    <linearGradient id="linear-gradient-22" x1="10.98" y1="-50.594" x2="10.947" y2="-46.63" xlink:href="#linear-gradient"/>
    <linearGradient id="linear-gradient-23" x1="0.503" y1="-0.339" x2="0.496" y2="2.798" gradientUnits="objectBoundingBox">
      <stop offset="0" stop-color="#fff" stop-opacity="0"/>
      <stop offset="0.39" stop-color="#fff"/>
    </linearGradient>
  </defs>
  <g id="inbox_-__messages_sent_2_" data-name="inbox_-__messages_sent (2)" transform="translate(-39.198 -72.14)">
    <path id="Path_2" data-name="Path 2" d="M233.329,115.164c-17.2,2.989-34.505,6.515-50.387,13.774-11.887,5.413-22.728,12.824-33.431,20.317-32.26,22.6-65.25,48.541-78.79,85.539a103.6,103.6,0,0,0,96.187,139.122,92.11,92.11,0,0,1-8.692-134.99c10.358-10.9,23.251-19.105,36.764-25.7,43.2-21.075,92.633-26.006,140.665-24.119s66.393-9.477,114.328-5.51c-10.7-26.64,5.413-32.687-9.807-57.04-22.37-35.814-46.5-29.78-84.672-26.447C314.613,103.814,273.758,108.139,233.329,115.164Z" transform="translate(-17.485 2.514)" fill="#2b51ff" opacity="0.24" style="isolation: isolate"/>
    <path id="Path_3" data-name="Path 3" d="M227.672,110.759c-17.2,2.989-34.505,6.515-50.387,13.774-11.874,5.413-22.728,12.824-33.417,20.317-32.26,22.618-65.25,48.555-78.776,85.553a103.6,103.6,0,0,0,96.173,139.122,92.1,92.1,0,0,1-8.678-134.921c10.345-10.9,23.238-19.105,36.75-25.7,43.21-21.075,92.647-26.006,140.679-24.119s75.925,7.08,123.819,11.02c-10.7-26.64-4.132-49.244-19.284-73.6-22.37-35.814-46.489-29.78-84.658-26.447C308.955,99.409,268.114,103.734,227.672,110.759Z" transform="translate(-19.61 0.873)" fill="url(#linear-gradient)"/>
    <rect id="Rectangle_3" data-name="Rectangle 3" width="18.747" height="115.65" transform="translate(168.199 371.803)" fill="#2b51ff"/>
    <rect id="Rectangle_4" data-name="Rectangle 4" width="18.747" height="115.65" transform="translate(168.199 371.803)" fill="url(#linear-gradient-2)"/>
    <path id="Path_5" data-name="Path 5" d="M233.284,275.591v45.828H104.81V275.591a23.885,23.885,0,0,1,23.912-23.871h80.663a23.9,23.9,0,0,1,23.9,23.871Z" transform="translate(-2.247 60.715)" fill="#2b51ff"/>
    <path id="Path_6" data-name="Path 6" d="M108.292,249.48h0a20.662,20.662,0,0,1,20.662,20.662v44.795H87.63V270.169a20.662,20.662,0,0,1,20.662-20.689Z" transform="translate(18.281 66.936)" fill="url(#linear-gradient-3)"/>
    <path id="Path_7" data-name="Path 7" d="M224.885,275.591V321.4H145.723v-48.5c-2.369-12.673-11.3-18.5-18.623-21.185h73.872A23.9,23.9,0,0,1,224.885,275.591Z" transform="translate(6.167 60.716)" fill="url(#linear-gradient-4)"/>
    <rect id="Rectangle_5" data-name="Rectangle 5" width="90.581" height="6.57" rx="2.39" transform="translate(61.309 375.564)" fill="#2b51ff"/>
    <rect id="Rectangle_6" data-name="Rectangle 6" width="90.581" height="6.57" rx="2.39" transform="translate(61.309 375.564)" fill="url(#linear-gradient-5)"/>
    <path id="Path_8" data-name="Path 8" d="M138.384,372.781c-10.923,1.956-21.75,4.477-32.783,5.51-7.163.689-15.069,1.047-20.262,6.033a6.887,6.887,0,0,0-2.314,4.132c-.289,3.444,3.306,5.854,6.529,7.121,9.408,3.719,19.615,4.78,29.712,5.427,16.419,1.033,32.893,1.061,49.368,1.074H217.67c14.491,0,30.552-.592,40.924-10.689a12.824,12.824,0,0,0,4.215-7.314c.579-4.6-2.92-8.94-7.149-10.868-7.314-3.333-18.265-2.645-26.171-3.526q-15.634-1.612-31.282-1.846a318.97,318.97,0,0,0-59.822,4.945Z" transform="translate(-10.476 104.535)" fill="#2b51ff" opacity="0.24" style="isolation: isolate"/>
    <path id="Path_9" data-name="Path 9" d="M178.711,275.71c-.179.592-.7,2.369-.854,3.017l-1.749,6.488a2.962,2.962,0,0,0-.124.882.675.675,0,0,0,.771.73,3.265,3.265,0,0,0,1.832-.758,7.149,7.149,0,0,0,2.369-5.51,7.3,7.3,0,0,0-3.361-6.336A10.359,10.359,0,0,0,172.361,273c-6.171,0-10.5,4.132-10.5,9.876s3.9,9.229,9.794,9.229a15.842,15.842,0,0,0,4.477-.647,12.938,12.938,0,0,0,3.278-1.543l1.777,2.576a14.589,14.589,0,0,1-3.65,1.694,21.379,21.379,0,0,1-6.2.923,13.058,13.058,0,0,1-9.642-3.471,12.025,12.025,0,0,1-3.389-8.65,12.6,12.6,0,0,1,3.568-9.119,14.408,14.408,0,0,1,10.758-4.008c6.818,0,11.667,4.38,11.667,10.5a9.835,9.835,0,0,1-2.755,7.039,7.8,7.8,0,0,1-5.51,2.4,2.893,2.893,0,0,1-2.507-1.143,1.859,1.859,0,0,1-.262-.9,4.779,4.779,0,0,1-3.926,1.832c-2.893,0-4.725-2.163-4.725-5.51,0-4.931,3.237-9.022,7.121-9.022a3.237,3.237,0,0,1,3.251,1.639l.289-1.033Zm-6.019,8.692a11.02,11.02,0,0,0,1.157-4.5c0-1.2-.661-2.025-1.694-2.025a3.389,3.389,0,0,0-2.865,2.107,10.166,10.166,0,0,0-1.171,4.38c0,1.557.592,2.369,1.708,2.369S171.92,285.889,172.692,284.4Z" transform="translate(17.946 67.553)" fill="#2b51ff"/>
    <path id="Path_10" data-name="Path 10" d="M512.752,117.59l-179.261,62L306.08,120.455Z" transform="translate(100.734 17.155)" fill="#2b51ff"/>
    <path id="Path_11" data-name="Path 11" d="M512.752,117.59l-179.261,62L306.08,120.455Z" transform="translate(100.734 17.155)" fill="url(#linear-gradient-6)"/>
    <path id="Path_12" data-name="Path 12" d="M315.212,140.91l156.134-10.372,41.406-12.948L306.08,120.455Z" transform="translate(100.734 17.155)" fill="url(#linear-gradient-7)"/>
    <path id="Path_13" data-name="Path 13" d="M279.8,72.14l254.387,64.492L312.9,110.226Z" transform="translate(90.814)" fill="#2b51ff"/>
    <path id="Path_14" data-name="Path 14" d="M196.13,137.367,344.481,99.79,565.768,126.2Z" transform="translate(59.233 10.436)" fill="#2b51ff"/>
    <path id="Path_15" data-name="Path 15" d="M279.8,72.14l254.387,64.492L312.9,110.226Z" transform="translate(90.814)" fill="url(#linear-gradient-8)"/>
    <rect id="Rectangle_7" data-name="Rectangle 7" width="53.321" height="32.866" transform="translate(245.725 169.214) rotate(1.75)" fill="#2b51ff"/>
    <path id="Path_16" data-name="Path 16" d="M241.713,177.087l-53.293-1.625.992-32.852,54.34,1.226Z" transform="translate(56.323 26.599)" fill="url(#linear-gradient-9)"/>
    <path id="Path_17" data-name="Path 17" d="M189.14,142.61l25.91,27.948,27.576-25.827Z" transform="translate(56.595 26.599)" fill="url(#linear-gradient-10)"/>
    <rect id="Rectangle_8" data-name="Rectangle 8" width="53.321" height="32.866" transform="matrix(0.902, 0.431, -0.431, 0.902, 155.205, 123.624)" fill="#2b51ff"/>
    <path id="Path_18" data-name="Path 18" d="M161.22,162.18l-48.1-23.017,14.188-29.643,49.2,23.072Z" transform="translate(27.902 14.109)" fill="url(#linear-gradient-11)"/>
    <path id="Path_19" data-name="Path 19" d="M123.42,109.52l12.411,36.034,35.648-12.507Z" transform="translate(31.789 14.109)" fill="url(#linear-gradient-12)"/>
    <rect id="Rectangle_9" data-name="Rectangle 9" width="35.015" height="21.585" transform="translate(95.583 233.283) rotate(-19.08)" fill="#2b51ff"/>
    <path id="Path_20" data-name="Path 20" d="M120.283,201.362l-33.1,11.447-7.053-20.4,33.637-11.929Z" transform="translate(15.45 40.893)" fill="url(#linear-gradient-13)"/>
    <path id="Path_21" data-name="Path 21" d="M80.13,192.2l22.425,11.1,10.9-22.287Z" transform="translate(15.45 41.096)" fill="url(#linear-gradient-14)"/>
    <rect id="Rectangle_10" data-name="Rectangle 10" width="34.202" height="21.075" transform="translate(42.899 211.309) rotate(-19.08)" fill="#2b51ff"/>
    <path id="Path_22" data-name="Path 22" d="M81.082,185.12,48.767,196.291,41.88,176.373,74.718,164.72Z" transform="translate(1.012 34.944)" fill="url(#linear-gradient-15)"/>
    <path id="Path_23" data-name="Path 23" d="M41.88,176.173l21.9,10.854L74.415,165.25Z" transform="translate(1.012 35.144)" fill="url(#linear-gradient-16)"/>
    <rect id="Rectangle_11" data-name="Rectangle 11" width="26.351" height="16.24" transform="translate(59.101 286.445) rotate(18)" fill="#2b51ff"/>
    <path id="Path_24" data-name="Path 24" d="M75.046,251.3,49.99,243.175l5.028-15.455,25.593,8.1Z" transform="translate(4.073 58.723)" fill="url(#linear-gradient-17)"/>
    <path id="Path_25" data-name="Path 25" d="M53.64,227.72l8.416,16.846,16.653-8.444Z" transform="translate(5.451 58.723)" fill="url(#linear-gradient-18)"/>
    <rect id="Rectangle_12" data-name="Rectangle 12" width="47.646" height="29.367" transform="translate(264.201 94.536) rotate(-21.47)" fill="#2b51ff"/>
    <path id="Path_26" data-name="Path 26" d="M257.638,103.267,213.3,120.706,202.54,93.377,247.6,75.25Z" transform="translate(61.653 1.174)" fill="url(#linear-gradient-19)"/>
    <path id="Path_27" data-name="Path 27" d="M202.54,93.094l31.13,13.83L247.211,76Z" transform="translate(61.653 1.457)" fill="url(#linear-gradient-20)"/>
    <rect id="Rectangle_13" data-name="Rectangle 13" width="57.825" height="35.648" transform="translate(434.309 72.174) rotate(5.62)" fill="#2b51ff"/>
    <path id="Path_28" data-name="Path 28" d="M381.073,113.294l-57.563-5.661,3.5-35.483L385.7,77.467Z" transform="translate(107.313 0.004)" fill="url(#linear-gradient-21)"/>
    <path id="Path_29" data-name="Path 29" d="M326.05,72.15l25.992,32.136,31.723-25.924Z" transform="translate(108.271 0.004)" fill="url(#linear-gradient-22)"/>
    <path id="Path_30" data-name="Path 30" d="M196.13,137.367,344.481,99.79,565.768,126.2Z" transform="translate(59.233 10.436)" fill="url(#linear-gradient-23)"/>
  </g>
</svg>
